<?xml version="1.0" standalone="no"?>
<!DOCTYPE svg PUBLIC "-//W3C//DTD SVG 20010904//EN"
 "http://www.w3.org/TR/2001/REC-SVG-20010904/DTD/svg10.dtd">
<svg version="1.0" xmlns="http://www.w3.org/2000/svg"
 width="234.000000pt" height="234.000000pt" viewBox="0 0 234.000000 234.000000"
 preserveAspectRatio="xMidYMid meet">
<metadata>
Created by potrace 1.11, written by Peter Selinger 2001-2013
</metadata>
<g transform="translate(0.000000,234.000000) scale(0.100000,-0.100000)"
fill="#000000" stroke="none">
<path d="M755 2313 c-38 -41 -83 -141 -112 -251 -23 -86 -26 -117 -27 -272 -1
-173 -1 -175 28 -231 44 -88 115 -167 286 -318 163 -145 211 -196 252 -268
l24 -42 -48 -98 c-26 -54 -57 -136 -69 -183 -50 -193 -11 -549 68 -628 l24
-24 24 22 c39 37 88 204 145 493 39 197 57 257 127 410 268 589 313 817 219
1095 -42 121 -132 276 -180 307 -53 35 -71 -4 -55 -126 19 -152 49 -258 106
-372 l34 -68 -32 -60 c-39 -73 -119 -148 -197 -185 -46 -22 -75 -29 -148 -32
-107 -5 -183 9 -262 48 -60 31 -136 90 -151 118 -5 11 -1 51 10 107 47 227 28
585 -31 585 -5 0 -21 -12 -35 -27z"/>
<path d="M1125 2001 c-64 -39 -95 -100 -95 -188 0 -109 65 -192 158 -200 65
-6 108 20 150 88 31 50 33 59 30 125 -4 81 -34 140 -91 174 -41 26 -112 26
-152 1z"/>
</g>
</svg>
